info face="Gluten" size=14 bold=0 italic=0 smooth=1 spacing=0,0
common lineHeight=33 base=25 scaleW=258 scaleH=256 pages=1
page id=0 file="gluten_medium_14_x2.PNG"
char id=32 x=1 y=26 width=0 height=0 xoffset=0 yoffset=25 xadvance=12 page=0
char id=33 x=2 y=2 width=7 height=25 xoffset=0 yoffset=1 xadvance=9 page=0
char id=34 x=10 y=2 width=11 height=10 xoffset=0 yoffset=1 xadvance=11 page=0
char id=35 x=22 y=2 width=33 height=25 xoffset=0 yoffset=1 xadvance=33 page=0
char id=36 x=56 y=2 width=19 height=25 xoffset=0 yoffset=1 xadvance=20 page=0
char id=37 x=76 y=3 width=27 height=24 xoffset=0 yoffset=2 xadvance=28 page=0
char id=38 x=104 y=2 width=26 height=26 xoffset=1 yoffset=1 xadvance=27 page=0
char id=39 x=131 y=2 width=5 height=9 xoffset=1 yoffset=1 xadvance=7 page=0
char id=40 x=137 y=2 width=12 height=32 xoffset=0 yoffset=1 xadvance=12 page=0
char id=41 x=150 y=2 width=12 height=32 xoffset=0 yoffset=1 xadvance=12 page=0
char id=42 x=163 y=1 width=18 height=16 xoffset=0 yoffset=0 xadvance=19 page=0
char id=43 x=182 y=6 width=21 height=17 xoffset=0 yoffset=5 xadvance=21 page=0
char id=44 x=204 y=22 width=7 height=10 xoffset=1 yoffset=21 xadvance=10 page=0
char id=45 x=212 y=12 width=22 height=5 xoffset=0 yoffset=11 xadvance=22 page=0
char id=46 x=235 y=21 width=8 height=6 xoffset=0 yoffset=20 xadvance=9 page=0
char id=47 x=1 y=36 width=22 height=22 xoffset=0 yoffset=2 xadvance=23 page=0
char id=48 x=24 y=35 width=18 height=25 xoffset=0 yoffset=1 xadvance=19 page=0
char id=49 x=43 y=36 width=10 height=24 xoffset=1 yoffset=2 xadvance=13 page=0
char id=50 x=54 y=36 width=18 height=24 xoffset=1 yoffset=2 xadvance=20 page=0
char id=51 x=73 y=36 width=20 height=25 xoffset=0 yoffset=2 xadvance=21 page=0
char id=52 x=94 y=36 width=19 height=24 xoffset=1 yoffset=2 xadvance=20 page=0
char id=53 x=114 y=36 width=19 height=24 xoffset=0 yoffset=2 xadvance=19 page=0
char id=54 x=134 y=36 width=19 height=24 xoffset=1 yoffset=2 xadvance=21 page=0
char id=55 x=154 y=35 width=18 height=25 xoffset=0 yoffset=1 xadvance=18 page=0
char id=56 x=173 y=36 width=22 height=24 xoffset=0 yoffset=2 xadvance=23 page=0
char id=57 x=196 y=37 width=19 height=23 xoffset=1 yoffset=3 xadvance=20 page=0
char id=58 x=216 y=43 width=7 height=15 xoffset=0 yoffset=9 xadvance=8 page=0
char id=59 x=224 y=42 width=6 height=21 xoffset=1 yoffset=8 xadvance=10 page=0
char id=60 x=231 y=38 width=14 height=17 xoffset=0 yoffset=4 xadvance=14 page=0
char id=61 x=1 y=70 width=18 height=12 xoffset=0 yoffset=7 xadvance=18 page=0
char id=62 x=20 y=67 width=14 height=17 xoffset=0 yoffset=4 xadvance=15 page=0
char id=63 x=35 y=64 width=19 height=25 xoffset=0 yoffset=1 xadvance=20 page=0
char id=64 x=55 y=64 width=36 height=26 xoffset=0 yoffset=1 xadvance=36 page=0
char id=65 x=92 y=65 width=27 height=24 xoffset=1 yoffset=2 xadvance=28 page=0
char id=66 x=120 y=65 width=22 height=24 xoffset=1 yoffset=2 xadvance=24 page=0
char id=67 x=143 y=65 width=21 height=24 xoffset=1 yoffset=2 xadvance=23 page=0
char id=68 x=165 y=65 width=24 height=24 xoffset=1 yoffset=2 xadvance=26 page=0
char id=69 x=190 y=64 width=19 height=25 xoffset=1 yoffset=1 xadvance=21 page=0
char id=70 x=210 y=64 width=19 height=25 xoffset=1 yoffset=1 xadvance=21 page=0
char id=71 x=230 y=64 width=26 height=25 xoffset=1 yoffset=1 xadvance=28 page=0
char id=72 x=1 y=91 width=24 height=25 xoffset=1 yoffset=1 xadvance=26 page=0
char id=73 x=26 y=93 width=8 height=23 xoffset=1 yoffset=3 xadvance=10 page=0
char id=74 x=35 y=92 width=21 height=24 xoffset=0 yoffset=2 xadvance=22 page=0
char id=75 x=57 y=91 width=23 height=25 xoffset=1 yoffset=1 xadvance=25 page=0
char id=76 x=81 y=92 width=20 height=24 xoffset=1 yoffset=2 xadvance=22 page=0
char id=77 x=102 y=93 width=30 height=23 xoffset=1 yoffset=3 xadvance=32 page=0
char id=78 x=133 y=93 width=26 height=23 xoffset=1 yoffset=3 xadvance=28 page=0
char id=79 x=160 y=93 width=28 height=24 xoffset=1 yoffset=3 xadvance=30 page=0
char id=80 x=189 y=92 width=22 height=24 xoffset=1 yoffset=2 xadvance=23 page=0
char id=81 x=212 y=92 width=28 height=28 xoffset=1 yoffset=2 xadvance=29 page=0
char id=82 x=1 y=122 width=22 height=24 xoffset=0 yoffset=2 xadvance=22 page=0
char id=83 x=24 y=121 width=21 height=25 xoffset=0 yoffset=1 xadvance=22 page=0
char id=84 x=46 y=123 width=25 height=23 xoffset=0 yoffset=3 xadvance=25 page=0
char id=85 x=72 y=123 width=24 height=23 xoffset=0 yoffset=3 xadvance=26 page=0
char id=86 x=97 y=122 width=27 height=24 xoffset=0 yoffset=2 xadvance=27 page=0
char id=87 x=125 y=122 width=33 height=23 xoffset=1 yoffset=2 xadvance=34 page=0
char id=88 x=159 y=122 width=25 height=24 xoffset=0 yoffset=2 xadvance=25 page=0
char id=89 x=185 y=122 width=24 height=24 xoffset=0 yoffset=2 xadvance=24 page=0
char id=90 x=210 y=122 width=21 height=24 xoffset=0 yoffset=2 xadvance=22 page=0
char id=91 x=232 y=121 width=12 height=32 xoffset=0 yoffset=1 xadvance=12 page=0
char id=92 x=1 y=156 width=17 height=23 xoffset=1 yoffset=2 xadvance=19 page=0
char id=93 x=19 y=155 width=12 height=32 xoffset=0 yoffset=1 xadvance=12 page=0
char id=94 x=32 y=154 width=17 height=11 xoffset=0 yoffset=0 xadvance=17 page=0
char id=95 x=50 y=179 width=26 height=4 xoffset=0 yoffset=25 xadvance=26 page=0
char id=96 x=77 y=156 width=10 height=6 xoffset=1 yoffset=2 xadvance=12 page=0
char id=97 x=88 y=162 width=21 height=20 xoffset=1 yoffset=8 xadvance=23 page=0
char id=98 x=110 y=155 width=22 height=25 xoffset=0 yoffset=1 xadvance=24 page=0
char id=99 x=133 y=160 width=21 height=20 xoffset=0 yoffset=6 xadvance=22 page=0
char id=100 x=155 y=155 width=21 height=25 xoffset=0 yoffset=1 xadvance=22 page=0
char id=101 x=177 y=161 width=21 height=19 xoffset=0 yoffset=7 xadvance=22 page=0
char id=102 x=199 y=155 width=19 height=25 xoffset=0 yoffset=1 xadvance=19 page=0
char id=103 x=219 y=161 width=23 height=26 xoffset=0 yoffset=7 xadvance=24 page=0
char id=104 x=1 y=188 width=22 height=25 xoffset=0 yoffset=1 xadvance=24 page=0
char id=105 x=24 y=188 width=10 height=25 xoffset=1 yoffset=1 xadvance=12 page=0
char id=106 x=35 y=188 width=15 height=32 xoffset=-4 yoffset=1 xadvance=13 page=0
char id=107 x=51 y=188 width=20 height=25 xoffset=1 yoffset=1 xadvance=22 page=0
char id=108 x=72 y=188 width=13 height=25 xoffset=1 yoffset=1 xadvance=14 page=0
char id=109 x=86 y=195 width=29 height=18 xoffset=0 yoffset=8 xadvance=30 page=0
char id=110 x=116 y=195 width=23 height=18 xoffset=0 yoffset=8 xadvance=25 page=0
char id=111 x=140 y=193 width=24 height=20 xoffset=0 yoffset=6 xadvance=26 page=0
char id=112 x=165 y=195 width=22 height=25 xoffset=0 yoffset=8 xadvance=23 page=0
char id=113 x=188 y=194 width=24 height=26 xoffset=0 yoffset=7 xadvance=25 page=0
char id=114 x=213 y=194 width=18 height=19 xoffset=1 yoffset=7 xadvance=19 page=0
char id=115 x=232 y=194 width=19 height=19 xoffset=0 yoffset=7 xadvance=19 page=0
char id=116 x=1 y=224 width=19 height=23 xoffset=0 yoffset=3 xadvance=20 page=0
char id=117 x=21 y=228 width=23 height=19 xoffset=0 yoffset=7 xadvance=25 page=0
char id=118 x=45 y=229 width=24 height=18 xoffset=0 yoffset=8 xadvance=26 page=0
char id=119 x=70 y=228 width=30 height=18 xoffset=0 yoffset=7 xadvance=30 page=0
char id=120 x=101 y=228 width=23 height=19 xoffset=1 yoffset=7 xadvance=25 page=0
char id=121 x=125 y=229 width=23 height=24 xoffset=0 yoffset=8 xadvance=23 page=0
char id=122 x=149 y=228 width=20 height=19 xoffset=0 yoffset=7 xadvance=21 page=0
char id=123 x=170 y=222 width=12 height=32 xoffset=0 yoffset=1 xadvance=12 page=0
char id=124 x=183 y=221 width=6 height=31 xoffset=0 yoffset=0 xadvance=7 page=0
char id=125 x=190 y=222 width=11 height=31 xoffset=0 yoffset=1 xadvance=12 page=0
char id=126 x=202 y=224 width=12 height=5 xoffset=3 yoffset=3 xadvance=19 page=0
