info face="Gluten" size=20 bold=0 italic=0 smooth=1 spacing=0,0
common lineHeight=47 base=35 scaleW=357 scaleH=359 pages=1
page id=0 file="gluten_medium_20_x2.PNG"
char id=32 x=1 y=37 width=0 height=0 xoffset=0 yoffset=35 xadvance=17 page=0
char id=33 x=2 y=1 width=8 height=37 xoffset=1 yoffset=-1 xadvance=12 page=0
char id=34 x=11 y=3 width=15 height=13 xoffset=0 yoffset=1 xadvance=15 page=0
char id=35 x=27 y=3 width=46 height=35 xoffset=0 yoffset=1 xadvance=47 page=0
char id=36 x=74 y=3 width=27 height=35 xoffset=0 yoffset=1 xadvance=29 page=0
char id=37 x=102 y=4 width=39 height=34 xoffset=0 yoffset=2 xadvance=40 page=0
char id=38 x=142 y=2 width=37 height=38 xoffset=1 yoffset=0 xadvance=38 page=0
char id=39 x=180 y=3 width=7 height=12 xoffset=1 yoffset=1 xadvance=9 page=0
char id=40 x=188 y=2 width=16 height=46 xoffset=1 yoffset=0 xadvance=18 page=0
char id=41 x=205 y=2 width=17 height=46 xoffset=0 yoffset=0 xadvance=17 page=0
char id=42 x=223 y=2 width=26 height=22 xoffset=0 yoffset=0 xadvance=27 page=0
char id=43 x=250 y=7 width=30 height=25 xoffset=0 yoffset=5 xadvance=30 page=0
char id=44 x=281 y=30 width=11 height=14 xoffset=1 yoffset=28 xadvance=14 page=0
char id=45 x=293 y=17 width=32 height=7 xoffset=0 yoffset=15 xadvance=32 page=0
char id=46 x=326 y=29 width=11 height=9 xoffset=1 yoffset=27 xadvance=13 page=0
char id=47 x=1 y=51 width=32 height=31 xoffset=0 yoffset=3 xadvance=32 page=0
char id=48 x=34 y=49 width=26 height=35 xoffset=0 yoffset=1 xadvance=28 page=0
char id=49 x=61 y=50 width=15 height=34 xoffset=1 yoffset=2 xadvance=18 page=0
char id=50 x=77 y=50 width=26 height=34 xoffset=1 yoffset=2 xadvance=29 page=0
char id=51 x=104 y=50 width=29 height=36 xoffset=0 yoffset=2 xadvance=30 page=0
char id=52 x=134 y=50 width=28 height=34 xoffset=1 yoffset=2 xadvance=29 page=0
char id=53 x=163 y=50 width=26 height=33 xoffset=0 yoffset=2 xadvance=27 page=0
char id=54 x=190 y=50 width=27 height=34 xoffset=1 yoffset=2 xadvance=29 page=0
char id=55 x=218 y=49 width=26 height=35 xoffset=0 yoffset=1 xadvance=26 page=0
char id=56 x=245 y=50 width=31 height=34 xoffset=1 yoffset=2 xadvance=33 page=0
char id=57 x=277 y=51 width=27 height=33 xoffset=1 yoffset=3 xadvance=29 page=0
char id=58 x=305 y=59 width=10 height=22 xoffset=0 yoffset=11 xadvance=11 page=0
char id=59 x=316 y=59 width=9 height=30 xoffset=1 yoffset=11 xadvance=14 page=0
char id=60 x=326 y=52 width=20 height=25 xoffset=0 yoffset=4 xadvance=20 page=0
char id=61 x=1 y=100 width=25 height=17 xoffset=0 yoffset=10 xadvance=26 page=0
char id=62 x=27 y=94 width=19 height=25 xoffset=1 yoffset=4 xadvance=21 page=0
char id=63 x=47 y=91 width=26 height=35 xoffset=1 yoffset=1 xadvance=28 page=0
char id=64 x=74 y=90 width=51 height=37 xoffset=0 yoffset=0 xadvance=51 page=0
char id=65 x=126 y=92 width=38 height=34 xoffset=1 yoffset=2 xadvance=40 page=0
char id=66 x=165 y=92 width=31 height=34 xoffset=2 yoffset=2 xadvance=34 page=0
char id=67 x=197 y=92 width=30 height=34 xoffset=1 yoffset=2 xadvance=33 page=0
char id=68 x=228 y=92 width=33 height=34 xoffset=2 yoffset=2 xadvance=37 page=0
char id=69 x=262 y=91 width=27 height=35 xoffset=2 yoffset=1 xadvance=31 page=0
char id=70 x=290 y=91 width=27 height=35 xoffset=2 yoffset=1 xadvance=30 page=0
char id=71 x=318 y=91 width=37 height=36 xoffset=1 yoffset=1 xadvance=40 page=0
char id=72 x=1 y=128 width=34 height=35 xoffset=2 yoffset=1 xadvance=37 page=0
char id=73 x=36 y=129 width=10 height=33 xoffset=2 yoffset=2 xadvance=14 page=0
char id=74 x=47 y=129 width=30 height=35 xoffset=0 yoffset=2 xadvance=32 page=0
char id=75 x=78 y=129 width=33 height=34 xoffset=2 yoffset=2 xadvance=35 page=0
char id=76 x=112 y=129 width=28 height=34 xoffset=2 yoffset=2 xadvance=31 page=0
char id=77 x=141 y=130 width=41 height=33 xoffset=2 yoffset=3 xadvance=45 page=0
char id=78 x=183 y=130 width=36 height=33 xoffset=2 yoffset=3 xadvance=40 page=0
char id=79 x=220 y=130 width=41 height=35 xoffset=1 yoffset=3 xadvance=43 page=0
char id=80 x=262 y=130 width=31 height=33 xoffset=2 yoffset=3 xadvance=33 page=0
char id=81 x=294 y=129 width=40 height=39 xoffset=1 yoffset=2 xadvance=42 page=0
char id=82 x=1 y=169 width=30 height=35 xoffset=1 yoffset=1 xadvance=32 page=0
char id=83 x=32 y=169 width=30 height=35 xoffset=0 yoffset=1 xadvance=32 page=0
char id=84 x=63 y=170 width=34 height=34 xoffset=1 yoffset=2 xadvance=36 page=0
char id=85 x=98 y=171 width=33 height=33 xoffset=1 yoffset=3 xadvance=36 page=0
char id=86 x=132 y=171 width=39 height=33 xoffset=0 yoffset=3 xadvance=39 page=0
char id=87 x=172 y=170 width=47 height=34 xoffset=1 yoffset=2 xadvance=49 page=0
char id=88 x=220 y=171 width=36 height=33 xoffset=0 yoffset=3 xadvance=36 page=0
char id=89 x=257 y=171 width=34 height=33 xoffset=0 yoffset=3 xadvance=35 page=0
char id=90 x=292 y=170 width=29 height=34 xoffset=0 yoffset=2 xadvance=31 page=0
char id=91 x=322 y=169 width=17 height=45 xoffset=0 yoffset=1 xadvance=17 page=0
char id=92 x=1 y=217 width=24 height=33 xoffset=1 yoffset=2 xadvance=27 page=0
char id=93 x=26 y=216 width=16 height=46 xoffset=1 yoffset=1 xadvance=18 page=0
char id=94 x=43 y=215 width=24 height=15 xoffset=0 yoffset=0 xadvance=24 page=0
char id=95 x=68 y=251 width=37 height=5 xoffset=0 yoffset=36 xadvance=37 page=0
char id=96 x=106 y=216 width=14 height=9 xoffset=2 yoffset=1 xadvance=18 page=0
char id=97 x=121 y=224 width=31 height=29 xoffset=1 yoffset=9 xadvance=33 page=0
char id=98 x=153 y=216 width=31 height=35 xoffset=1 yoffset=1 xadvance=34 page=0
char id=99 x=185 y=222 width=30 height=29 xoffset=0 yoffset=7 xadvance=32 page=0
char id=100 x=216 y=216 width=30 height=35 xoffset=0 yoffset=1 xadvance=32 page=0
char id=101 x=247 y=224 width=29 height=28 xoffset=1 yoffset=9 xadvance=31 page=0
char id=102 x=277 y=216 width=26 height=35 xoffset=0 yoffset=1 xadvance=27 page=0
char id=103 x=304 y=225 width=33 height=37 xoffset=0 yoffset=10 xadvance=35 page=0
char id=104 x=1 y=263 width=31 height=35 xoffset=1 yoffset=1 xadvance=34 page=0
char id=105 x=33 y=263 width=14 height=35 xoffset=2 yoffset=1 xadvance=18 page=0
char id=106 x=48 y=263 width=21 height=46 xoffset=-5 yoffset=1 xadvance=18 page=0
char id=107 x=70 y=263 width=28 height=35 xoffset=1 yoffset=1 xadvance=31 page=0
char id=108 x=99 y=263 width=17 height=35 xoffset=2 yoffset=1 xadvance=21 page=0
char id=109 x=117 y=273 width=40 height=25 xoffset=1 yoffset=11 xadvance=43 page=0
char id=110 x=158 y=272 width=33 height=26 xoffset=0 yoffset=10 xadvance=35 page=0
char id=111 x=192 y=269 width=35 height=29 xoffset=0 yoffset=7 xadvance=36 page=0
char id=112 x=228 y=272 width=32 height=37 xoffset=0 yoffset=10 xadvance=33 page=0
char id=113 x=261 y=271 width=33 height=37 xoffset=1 yoffset=9 xadvance=36 page=0
char id=114 x=295 y=271 width=26 height=27 xoffset=1 yoffset=9 xadvance=28 page=0
char id=115 x=322 y=271 width=26 height=27 xoffset=0 yoffset=9 xadvance=27 page=0
char id=116 x=1 y=314 width=26 height=33 xoffset=1 yoffset=3 xadvance=28 page=0
char id=117 x=28 y=321 width=32 height=27 xoffset=1 yoffset=10 xadvance=35 page=0
char id=118 x=61 y=321 width=34 height=27 xoffset=0 yoffset=10 xadvance=36 page=0
char id=119 x=96 y=320 width=42 height=26 xoffset=0 yoffset=9 xadvance=43 page=0
char id=120 x=139 y=320 width=33 height=27 xoffset=1 yoffset=9 xadvance=35 page=0
char id=121 x=173 y=322 width=32 height=35 xoffset=0 yoffset=11 xadvance=33 page=0
char id=122 x=206 y=320 width=28 height=27 xoffset=0 yoffset=9 xadvance=30 page=0
char id=123 x=235 y=311 width=16 height=46 xoffset=1 yoffset=0 xadvance=17 page=0
char id=124 x=252 y=310 width=8 height=45 xoffset=1 yoffset=-1 xadvance=10 page=0
char id=125 x=261 y=312 width=15 height=45 xoffset=1 yoffset=1 xadvance=17 page=0
char id=126 x=277 y=314 width=17 height=7 xoffset=5 yoffset=3 xadvance=27 page=0
