info face="Gluten" size=12 bold=0 italic=0 smooth=1 spacing=0,0
common lineHeight=14 base=11 scaleW=119 scaleH=130 pages=1
page id=0 file="gluten_medium_12.PNG"
char id=32 x=1 y=11 width=0 height=0 xoffset=0 yoffset=11 xadvance=5 page=0
char id=33 x=2 y=1 width=3 height=10 xoffset=0 yoffset=1 xadvance=4 page=0
char id=34 x=6 y=1 width=5 height=4 xoffset=0 yoffset=1 xadvance=5 page=0
char id=35 x=12 y=1 width=14 height=10 xoffset=0 yoffset=1 xadvance=14 page=0
char id=36 x=27 y=1 width=9 height=10 xoffset=0 yoffset=1 xadvance=9 page=0
char id=37 x=37 y=1 width=12 height=10 xoffset=0 yoffset=1 xadvance=12 page=0
char id=38 x=50 y=1 width=12 height=11 xoffset=0 yoffset=1 xadvance=12 page=0
char id=39 x=63 y=1 width=3 height=4 xoffset=0 yoffset=1 xadvance=3 page=0
char id=40 x=67 y=1 width=6 height=14 xoffset=0 yoffset=1 xadvance=5 page=0
char id=41 x=74 y=1 width=5 height=14 xoffset=0 yoffset=1 xadvance=5 page=0
char id=42 x=80 y=1 width=8 height=7 xoffset=0 yoffset=1 xadvance=8 page=0
char id=43 x=89 y=2 width=9 height=8 xoffset=0 yoffset=2 xadvance=9 page=0
char id=44 x=99 y=8 width=4 height=6 xoffset=0 yoffset=8 xadvance=4 page=0
char id=45 x=104 y=4 width=10 height=3 xoffset=0 yoffset=4 xadvance=10 page=0
char id=46 x=1 y=23 width=4 height=3 xoffset=0 yoffset=8 xadvance=4 page=0
char id=47 x=6 y=16 width=10 height=10 xoffset=0 yoffset=1 xadvance=10 page=0
char id=48 x=17 y=16 width=8 height=10 xoffset=0 yoffset=1 xadvance=8 page=0
char id=49 x=26 y=16 width=5 height=10 xoffset=0 yoffset=1 xadvance=5 page=0
char id=50 x=32 y=16 width=8 height=10 xoffset=0 yoffset=1 xadvance=9 page=0
char id=51 x=41 y=16 width=9 height=10 xoffset=0 yoffset=1 xadvance=9 page=0
char id=52 x=51 y=16 width=9 height=10 xoffset=0 yoffset=1 xadvance=9 page=0
char id=53 x=61 y=16 width=8 height=10 xoffset=0 yoffset=1 xadvance=8 page=0
char id=54 x=70 y=16 width=9 height=10 xoffset=0 yoffset=1 xadvance=9 page=0
char id=55 x=80 y=16 width=8 height=10 xoffset=0 yoffset=1 xadvance=8 page=0
char id=56 x=89 y=16 width=10 height=10 xoffset=0 yoffset=1 xadvance=10 page=0
char id=57 x=100 y=16 width=9 height=10 xoffset=0 yoffset=1 xadvance=9 page=0
char id=58 x=110 y=18 width=3 height=7 xoffset=0 yoffset=3 xadvance=3 page=0
char id=59 x=114 y=19 width=3 height=9 xoffset=0 yoffset=4 xadvance=4 page=0
char id=60 x=1 y=29 width=6 height=8 xoffset=0 yoffset=1 xadvance=6 page=0
char id=61 x=8 y=31 width=8 height=5 xoffset=0 yoffset=3 xadvance=8 page=0
char id=62 x=17 y=29 width=6 height=8 xoffset=0 yoffset=1 xadvance=6 page=0
char id=63 x=24 y=29 width=8 height=10 xoffset=0 yoffset=1 xadvance=8 page=0
char id=64 x=33 y=29 width=16 height=10 xoffset=0 yoffset=1 xadvance=15 page=0
char id=65 x=50 y=29 width=12 height=10 xoffset=0 yoffset=1 xadvance=12 page=0
char id=66 x=63 y=29 width=10 height=10 xoffset=0 yoffset=1 xadvance=10 page=0
char id=67 x=74 y=29 width=10 height=10 xoffset=0 yoffset=1 xadvance=10 page=0
char id=68 x=85 y=29 width=11 height=10 xoffset=0 yoffset=1 xadvance=11 page=0
char id=69 x=97 y=29 width=9 height=10 xoffset=0 yoffset=1 xadvance=9 page=0
char id=70 x=107 y=29 width=9 height=10 xoffset=0 yoffset=1 xadvance=9 page=0
char id=71 x=1 y=41 width=12 height=10 xoffset=0 yoffset=1 xadvance=12 page=0
char id=72 x=14 y=41 width=11 height=10 xoffset=0 yoffset=1 xadvance=11 page=0
char id=73 x=26 y=41 width=4 height=10 xoffset=0 yoffset=1 xadvance=4 page=0
char id=74 x=31 y=41 width=9 height=10 xoffset=0 yoffset=1 xadvance=9 page=0
char id=75 x=41 y=41 width=11 height=10 xoffset=0 yoffset=1 xadvance=11 page=0
char id=76 x=53 y=41 width=9 height=10 xoffset=0 yoffset=1 xadvance=9 page=0
char id=77 x=63 y=41 width=13 height=10 xoffset=0 yoffset=1 xadvance=14 page=0
char id=78 x=77 y=40 width=12 height=11 xoffset=0 yoffset=0 xadvance=12 page=0
char id=79 x=90 y=41 width=13 height=11 xoffset=0 yoffset=1 xadvance=13 page=0
char id=80 x=104 y=41 width=10 height=10 xoffset=0 yoffset=1 xadvance=10 page=0
char id=81 x=1 y=53 width=13 height=12 xoffset=0 yoffset=1 xadvance=13 page=0
char id=82 x=15 y=53 width=10 height=10 xoffset=0 yoffset=1 xadvance=10 page=0
char id=83 x=26 y=53 width=9 height=10 xoffset=0 yoffset=1 xadvance=9 page=0
char id=84 x=36 y=53 width=11 height=10 xoffset=0 yoffset=1 xadvance=11 page=0
char id=85 x=48 y=53 width=11 height=10 xoffset=0 yoffset=1 xadvance=11 page=0
char id=86 x=60 y=53 width=12 height=10 xoffset=0 yoffset=1 xadvance=12 page=0
char id=87 x=73 y=53 width=15 height=10 xoffset=0 yoffset=1 xadvance=15 page=0
char id=88 x=89 y=53 width=11 height=10 xoffset=0 yoffset=1 xadvance=11 page=0
char id=89 x=101 y=53 width=11 height=10 xoffset=0 yoffset=1 xadvance=10 page=0
char id=90 x=1 y=68 width=9 height=10 xoffset=0 yoffset=1 xadvance=9 page=0
char id=91 x=11 y=68 width=6 height=14 xoffset=0 yoffset=1 xadvance=5 page=0
char id=92 x=18 y=68 width=8 height=10 xoffset=0 yoffset=1 xadvance=8 page=0
char id=93 x=27 y=68 width=5 height=14 xoffset=0 yoffset=1 xadvance=5 page=0
char id=94 x=33 y=66 width=8 height=6 xoffset=0 yoffset=-1 xadvance=7 page=0
char id=95 x=42 y=78 width=11 height=3 xoffset=0 yoffset=11 xadvance=11 page=0
char id=96 x=54 y=67 width=5 height=3 xoffset=0 yoffset=0 xadvance=5 page=0
char id=97 x=60 y=70 width=10 height=9 xoffset=0 yoffset=3 xadvance=10 page=0
char id=98 x=71 y=68 width=10 height=10 xoffset=0 yoffset=1 xadvance=10 page=0
char id=99 x=82 y=69 width=9 height=9 xoffset=0 yoffset=2 xadvance=9 page=0
char id=100 x=92 y=68 width=9 height=10 xoffset=0 yoffset=1 xadvance=10 page=0
char id=101 x=102 y=70 width=9 height=8 xoffset=0 yoffset=3 xadvance=9 page=0
char id=102 x=1 y=83 width=8 height=10 xoffset=0 yoffset=1 xadvance=8 page=0
char id=103 x=10 y=86 width=10 height=11 xoffset=0 yoffset=4 xadvance=10 page=0
char id=104 x=21 y=83 width=10 height=10 xoffset=0 yoffset=1 xadvance=10 page=0
char id=105 x=32 y=83 width=5 height=10 xoffset=0 yoffset=1 xadvance=5 page=0
char id=106 x=38 y=83 width=7 height=14 xoffset=-2 yoffset=1 xadvance=5 page=0
char id=107 x=46 y=83 width=9 height=10 xoffset=0 yoffset=1 xadvance=9 page=0
char id=108 x=56 y=83 width=6 height=10 xoffset=0 yoffset=1 xadvance=6 page=0
char id=109 x=63 y=85 width=13 height=8 xoffset=0 yoffset=3 xadvance=13 page=0
char id=110 x=77 y=85 width=10 height=8 xoffset=0 yoffset=3 xadvance=11 page=0
char id=111 x=88 y=85 width=11 height=8 xoffset=0 yoffset=3 xadvance=11 page=0
char id=112 x=100 y=86 width=10 height=11 xoffset=0 yoffset=4 xadvance=10 page=0
char id=113 x=1 y=100 width=10 height=12 xoffset=0 yoffset=3 xadvance=11 page=0
char id=114 x=12 y=100 width=8 height=8 xoffset=0 yoffset=3 xadvance=8 page=0
char id=115 x=21 y=100 width=8 height=8 xoffset=0 yoffset=3 xadvance=8 page=0
char id=116 x=30 y=98 width=8 height=10 xoffset=0 yoffset=1 xadvance=9 page=0
char id=117 x=39 y=100 width=10 height=8 xoffset=0 yoffset=3 xadvance=11 page=0
char id=118 x=50 y=100 width=11 height=8 xoffset=0 yoffset=3 xadvance=11 page=0
char id=119 x=62 y=100 width=13 height=8 xoffset=0 yoffset=3 xadvance=13 page=0
char id=120 x=76 y=100 width=11 height=8 xoffset=0 yoffset=3 xadvance=11 page=0
char id=121 x=88 y=101 width=10 height=11 xoffset=0 yoffset=4 xadvance=10 page=0
char id=122 x=99 y=100 width=9 height=8 xoffset=0 yoffset=3 xadvance=9 page=0
char id=123 x=109 y=98 width=6 height=14 xoffset=0 yoffset=1 xadvance=5 page=0
char id=124 x=1 y=113 width=3 height=14 xoffset=0 yoffset=0 xadvance=3 page=0
char id=125 x=5 y=114 width=5 height=14 xoffset=0 yoffset=1 xadvance=5 page=0
char id=126 x=11 y=114 width=6 height=2 xoffset=1 yoffset=1 xadvance=8 page=0
