info face="Gluten" size=65 bold=0 italic=0 smooth=1 spacing=0,0
common lineHeight=76 base=56 scaleW=558 scaleH=560 pages=1
page id=0 file="gluten_medium_65.PNG"
char id=32 x=1 y=58 width=0 height=0 xoffset=0 yoffset=56 xadvance=27 page=0
char id=33 x=2 y=2 width=14 height=59 xoffset=1 yoffset=0 xadvance=20 page=0
char id=34 x=17 y=2 width=23 height=22 xoffset=1 yoffset=0 xadvance=25 page=0
char id=35 x=41 y=3 width=75 height=57 xoffset=0 yoffset=1 xadvance=76 page=0
char id=36 x=117 y=3 width=43 height=57 xoffset=1 yoffset=1 xadvance=47 page=0
char id=37 x=161 y=6 width=62 height=53 xoffset=1 yoffset=4 xadvance=65 page=0
char id=38 x=224 y=2 width=59 height=61 xoffset=2 yoffset=0 xadvance=62 page=0
char id=39 x=284 y=3 width=10 height=20 xoffset=2 yoffset=1 xadvance=15 page=0
char id=40 x=295 y=2 width=26 height=74 xoffset=2 yoffset=0 xadvance=29 page=0
char id=41 x=322 y=1 width=27 height=74 xoffset=0 yoffset=-1 xadvance=27 page=0
char id=42 x=350 y=1 width=41 height=36 xoffset=1 yoffset=-1 xadvance=44 page=0
char id=43 x=392 y=11 width=47 height=40 xoffset=1 yoffset=9 xadvance=49 page=0
char id=44 x=440 y=48 width=17 height=23 xoffset=2 yoffset=46 xadvance=23 page=0
char id=45 x=458 y=26 width=51 height=11 xoffset=0 yoffset=24 xadvance=52 page=0
char id=46 x=510 y=46 width=18 height=14 xoffset=1 yoffset=44 xadvance=22 page=0
char id=47 x=1 y=79 width=50 height=51 xoffset=1 yoffset=3 xadvance=52 page=0
char id=48 x=52 y=78 width=41 height=56 xoffset=1 yoffset=2 xadvance=45 page=0
char id=49 x=94 y=78 width=23 height=57 xoffset=2 yoffset=2 xadvance=30 page=0
char id=50 x=118 y=79 width=42 height=55 xoffset=2 yoffset=3 xadvance=47 page=0
char id=51 x=161 y=78 width=46 height=58 xoffset=1 yoffset=2 xadvance=49 page=0
char id=52 x=208 y=79 width=44 height=55 xoffset=2 yoffset=3 xadvance=47 page=0
char id=53 x=253 y=80 width=41 height=53 xoffset=1 yoffset=4 xadvance=44 page=0
char id=54 x=295 y=79 width=44 height=55 xoffset=2 yoffset=3 xadvance=48 page=0
char id=55 x=340 y=77 width=41 height=57 xoffset=1 yoffset=1 xadvance=43 page=0
char id=56 x=382 y=79 width=49 height=55 xoffset=2 yoffset=3 xadvance=54 page=0
char id=57 x=432 y=80 width=43 height=54 xoffset=2 yoffset=4 xadvance=47 page=0
char id=58 x=476 y=94 width=15 height=35 xoffset=1 yoffset=18 xadvance=19 page=0
char id=59 x=492 y=93 width=14 height=48 xoffset=3 yoffset=17 xadvance=22 page=0
char id=60 x=507 y=83 width=32 height=40 xoffset=0 yoffset=7 xadvance=33 page=0
char id=61 x=1 y=158 width=40 height=28 xoffset=0 yoffset=15 xadvance=42 page=0
char id=62 x=42 y=150 width=32 height=40 xoffset=1 yoffset=7 xadvance=34 page=0
char id=63 x=75 y=144 width=42 height=57 xoffset=2 yoffset=1 xadvance=45 page=0
char id=64 x=118 y=142 width=82 height=60 xoffset=0 yoffset=-1 xadvance=84 page=0
char id=65 x=201 y=147 width=61 height=54 xoffset=2 yoffset=4 xadvance=66 page=0
char id=66 x=263 y=146 width=51 height=55 xoffset=3 yoffset=3 xadvance=56 page=0
char id=67 x=315 y=148 width=48 height=54 xoffset=2 yoffset=5 xadvance=53 page=0
char id=68 x=364 y=146 width=54 height=54 xoffset=3 yoffset=3 xadvance=59 page=0
char id=69 x=419 y=144 width=43 height=57 xoffset=3 yoffset=1 xadvance=50 page=0
char id=70 x=463 y=144 width=44 height=57 xoffset=3 yoffset=1 xadvance=48 page=0
char id=71 x=1 y=203 width=60 height=58 xoffset=2 yoffset=1 xadvance=64 page=0
char id=72 x=62 y=203 width=55 height=57 xoffset=3 yoffset=1 xadvance=61 page=0
char id=73 x=118 y=206 width=16 height=53 xoffset=4 yoffset=4 xadvance=23 page=0
char id=74 x=135 y=204 width=48 height=57 xoffset=0 yoffset=2 xadvance=51 page=0
char id=75 x=184 y=204 width=53 height=55 xoffset=3 yoffset=2 xadvance=57 page=0
char id=76 x=238 y=205 width=45 height=55 xoffset=3 yoffset=3 xadvance=50 page=0
char id=77 x=284 y=206 width=67 height=54 xoffset=3 yoffset=4 xadvance=73 page=0
char id=78 x=352 y=207 width=59 height=53 xoffset=3 yoffset=5 xadvance=65 page=0
char id=79 x=412 y=207 width=65 height=56 xoffset=2 yoffset=5 xadvance=69 page=0
char id=80 x=478 y=206 width=50 height=53 xoffset=3 yoffset=4 xadvance=54 page=0
char id=81 x=1 y=267 width=64 height=62 xoffset=2 yoffset=4 xadvance=68 page=0
char id=82 x=66 y=265 width=48 height=56 xoffset=1 yoffset=2 xadvance=52 page=0
char id=83 x=115 y=264 width=47 height=57 xoffset=1 yoffset=1 xadvance=51 page=0
char id=84 x=163 y=267 width=55 height=54 xoffset=2 yoffset=4 xadvance=59 page=0
char id=85 x=219 y=268 width=54 height=53 xoffset=1 yoffset=5 xadvance=59 page=0
char id=86 x=274 y=268 width=61 height=53 xoffset=1 yoffset=5 xadvance=63 page=0
char id=87 x=336 y=266 width=75 height=54 xoffset=2 yoffset=3 xadvance=79 page=0
char id=88 x=412 y=267 width=58 height=54 xoffset=0 yoffset=4 xadvance=59 page=0
char id=89 x=471 y=267 width=54 height=53 xoffset=1 yoffset=4 xadvance=56 page=0
char id=90 x=1 y=334 width=47 height=55 xoffset=0 yoffset=3 xadvance=50 page=0
char id=91 x=49 y=332 width=28 height=74 xoffset=0 yoffset=1 xadvance=28 page=0
char id=92 x=78 y=334 width=39 height=53 xoffset=2 yoffset=3 xadvance=45 page=0
char id=93 x=118 y=332 width=26 height=74 xoffset=2 yoffset=1 xadvance=29 page=0
char id=94 x=145 y=330 width=38 height=23 xoffset=1 yoffset=-1 xadvance=40 page=0
char id=95 x=184 y=389 width=60 height=8 xoffset=0 yoffset=58 xadvance=60 page=0
char id=96 x=245 y=333 width=22 height=14 xoffset=3 yoffset=2 xadvance=29 page=0
char id=97 x=268 y=346 width=49 height=46 xoffset=2 yoffset=15 xadvance=54 page=0
char id=98 x=318 y=332 width=49 height=57 xoffset=2 yoffset=1 xadvance=55 page=0
char id=99 x=368 y=343 width=47 height=47 xoffset=1 yoffset=12 xadvance=51 page=0
char id=100 x=416 y=331 width=48 height=58 xoffset=1 yoffset=0 xadvance=52 page=0
char id=101 x=465 y=345 width=46 height=45 xoffset=2 yoffset=14 xadvance=51 page=0
char id=102 x=512 y=331 width=43 height=58 xoffset=0 yoffset=0 xadvance=44 page=0
char id=103 x=1 y=422 width=52 height=59 xoffset=1 yoffset=16 xadvance=57 page=0
char id=104 x=54 y=407 width=49 height=57 xoffset=2 yoffset=1 xadvance=55 page=0
char id=105 x=104 y=407 width=22 height=57 xoffset=3 yoffset=1 xadvance=29 page=0
char id=106 x=127 y=407 width=33 height=75 xoffset=-8 yoffset=1 xadvance=29 page=0
char id=107 x=161 y=407 width=45 height=57 xoffset=2 yoffset=1 xadvance=50 page=0
char id=108 x=207 y=407 width=28 height=57 xoffset=3 yoffset=1 xadvance=34 page=0
char id=109 x=236 y=422 width=66 height=41 xoffset=1 yoffset=16 xadvance=69 page=0
char id=110 x=303 y=421 width=52 height=42 xoffset=1 yoffset=15 xadvance=57 page=0
char id=111 x=356 y=418 width=55 height=46 xoffset=1 yoffset=12 xadvance=59 page=0
char id=112 x=412 y=423 width=50 height=59 xoffset=1 yoffset=17 xadvance=54 page=0
char id=113 x=463 y=420 width=52 height=60 xoffset=2 yoffset=14 xadvance=58 page=0
char id=114 x=516 y=420 width=40 height=44 xoffset=3 yoffset=14 xadvance=45 page=0
char id=115 x=1 y=499 width=41 height=44 xoffset=1 yoffset=14 xadvance=44 page=0
char id=116 x=43 y=490 width=42 height=52 xoffset=1 yoffset=5 xadvance=46 page=0
char id=117 x=86 y=501 width=53 height=43 xoffset=1 yoffset=16 xadvance=58 page=0
char id=118 x=140 y=501 width=55 height=43 xoffset=1 yoffset=16 xadvance=59 page=0
char id=119 x=196 y=499 width=67 height=42 xoffset=1 yoffset=14 xadvance=70 page=0
char id=120 x=264 y=499 width=53 height=44 xoffset=2 yoffset=14 xadvance=57 page=0
char id=121 x=318 y=502 width=51 height=56 xoffset=1 yoffset=17 xadvance=54 page=0
char id=122 x=370 y=499 width=46 height=44 xoffset=0 yoffset=14 xadvance=48 page=0
char id=123 x=417 y=485 width=26 height=73 xoffset=2 yoffset=0 xadvance=28 page=0
char id=124 x=444 y=483 width=13 height=73 xoffset=1 yoffset=-2 xadvance=17 page=0
char id=125 x=458 y=486 width=25 height=72 xoffset=1 yoffset=1 xadvance=27 page=0
char id=126 x=484 y=490 width=27 height=11 xoffset=8 yoffset=5 xadvance=44 page=0
